{
  "fdce88f105f140236cfc972e379df27c93f36e42ed3cfe9c5e501912b10681cd": true,
  "d337158af244435b00ec27174cb49ea21d203067cf119bbd0cf9a448095e5e7d": true,
  "425aa68998124c75d12a9294bd0ad99268064cf35c0d1bca9eded272be0a2af6": true,
  "89ed26367cdb9b771858e026f2eb95bfdb90e5ae943e716575327ec325f39c44": true,
  "4b84cf42976d672349eafc52692a4b7e92b43fc451476520d9afe2a39d5eded7": true
}